480-
1-walking1-explosion-energyBuff-60-3-40-15-.
1-walking1-explosion-armorBuff-75-4-40-15-.
1-flying2-laser-armorBuff-2-4-1-0.075-.
1-flying2-laser-healthBuff-2-2-1-0.075-.
3-flying2-laser-healthBuff-7-2-5-0.075-.
!